…
Lists
===

Data frames
===


```r
library(tidyverse)
ObjFreqERPs <- read_csv("../data/ObjFreqERPs.csv")
ObjFreqERPs
```

```
# A tibble: 6,135 x 8
   `Object/BB` `Object/HSF` `Object/LSF` `Non-Object/LSF` `Non-Object/HSF`
         <dbl>        <dbl>        <dbl>            <dbl>            <dbl>
 1    0.195420     0.392420      0.23052          -1.1717          0.55332
 2    0.188040     0.280100      0.42763          -1.1999          0.65972
 3    0.171190     0.186090      0.65327          -1.2339          0.75703
 4    0.142760     0.118700      0.87669          -1.2761          0.82759
 5    0.103260     0.036484      1.03270          -1.3268          0.86519
 6    0.065559    -0.080596      1.10820          -1.3844          0.88463
 7    0.047670    -0.179570      1.14740          -1.4429          0.90511
 8    0.060566    -0.210520      1.17710          -1.4880          0.94317
 9    0.108420    -0.199480      1.18150          -1.5042          0.99105
10    0.179090    -0.203010      1.13920          -1.4903          1.02380
# ... with 6,125 more rows, and 3 more variables: `Non-Object/BB` <dbl>,
#   Time <dbl>, Subject <int>
```
…
